{
    "data": {
        "openCases": [
            {
                "caseNumber": "81926403",
                "clientName": "Norrtälje Kommun - Barn & Utbildning",
                "closureDate": null,
                "remainingSum": 1693.0000
            },
            {
                "caseNumber": "82152858",
                "clientName": "Norrtälje Kommun - Barn & Utbildning",
                "closureDate": null,
                "remainingSum": 3777.0500
            },
            {
                "caseNumber": "81958115",
                "clientName": "Norrtälje Kommun - Barn & Utbildning",
                "closureDate": null,
                "remainingSum": 3162.2900
            },
            {
                "caseNumber": "82211704",
                "clientName": "Norrtälje Kommun - Barn & Utbildning",
                "closureDate": null,
                "remainingSum": 5156.2000
            },
            {
                "caseNumber": "81973545",
                "clientName": "Norrtälje Kommun - Barn & Utbildning",
                "closureDate": null,
                "remainingSum": 3172.7800
            },
            {
                "caseNumber": "82198933",
                "clientName": "Norrtälje Kommun - Barn & Utbildning",
                "closureDate": null,
                "remainingSum": 9989.0300
            },
            {
                "caseNumber": "82008734",
                "clientName": "Norrtälje Kommun - Barn & Utbildning",
                "closureDate": null,
                "remainingSum": 2504.7800
            },
            {
                "caseNumber": "82170447",
                "clientName": "Norrtälje Kommun - Renhållningen",
                "closureDate": null,
                "remainingSum": 2795.1600
            },
            {
                "caseNumber": "82110076",
                "clientName": "Norrtälje Kommun - Renhållningen",
                "closureDate": null,
                "remainingSum": 2503.5900
            },
            {
                "caseNumber": "81929515",
                "clientName": "Norrtälje Kommun - Renhållningen",
                "closureDate": null,
                "remainingSum": 2656.9100
            },
            {
                "caseNumber": "81543181",
                "clientName": "Norrtälje Kommun - Renhållningen",
                "closureDate": null,
                "remainingSum": 4772.4400
            },
            {
                "caseNumber": "47407829",
                "clientName": "Sergel Finans AB (Övertag från Telia)",
                "closureDate": null,
                "remainingSum": 644.0000
            },
            {
                "caseNumber": "51156751",
                "clientName": "Sergel Finans AB (Övertag från Telia)",
                "closureDate": null,
                "remainingSum": 335.9700
            },
            {
                "caseNumber": "52105256",
                "clientName": "Sergel Finans AB (Övertag från Telia)",
                "closureDate": null,
                "remainingSum": 368.0000
            },
            {
                "caseNumber": "59494681",
                "clientName": "Sergel Finans AB (Övertag från Telia)",
                "closureDate": null,
                "remainingSum": 984.0000
            },
            {
                "caseNumber": "56452174",
                "clientName": "Sergel Finans AB (Övertag från Telia)",
                "closureDate": null,
                "remainingSum": 1385.8900
            },
            {
                "caseNumber": "50071437",
                "clientName": "Sergel Finans AB (Övertag från Telia)",
                "closureDate": null,
                "remainingSum": 2070.8900
            },
            {
                "caseNumber": "58420533",
                "clientName": "Sergel Finans AB (Övertag från Telia)",
                "closureDate": null,
                "remainingSum": 364.0000
            },
            {
                "caseNumber": "50102111",
                "clientName": "Sergel Finans AB (Övertag från Telia)",
                "closureDate": null,
                "remainingSum": 348.0000
            },
            {
                "caseNumber": "58143669",
                "clientName": "Sergel Finans AB (Övertag från Telia)",
                "closureDate": null,
                "remainingSum": 380.0000
            },
            {
                "caseNumber": "51416818",
                "clientName": "Sergel Finans AB (Övertag från Telia)",
                "closureDate": null,
                "remainingSum": 164.0000
            },
            {
                "caseNumber": "47584123",
                "clientName": "Sergel Finans AB (Övertag från Telia)",
                "closureDate": null,
                "remainingSum": 647.0000
            },
            {
                "caseNumber": "59596774",
                "clientName": "Sergel Finans AB (Övertag från Telia)",
                "closureDate": null,
                "remainingSum": 326.9800
            }
        ],
        "closedCases": [
            {
                "caseNumber": "82138141",
                "clientName": "Norrtälje Kommun - Barn & Utbildning",
                "closureDate": "2020-07-07T00:00:00",
                "remainingSum": 0
            }
        ],
        "openCaseCount": 23,
        "closedCaseCount": 1,
        "totalDebtToPay": 50201.9600,
        "result": null
    },
    "result": {
        "resultCode": 0,
        "resultText": null
    }
}

